Lab4/lab4.1/sim/adderOut_correct.txt
Reading pref.tcl

# 10.7c

# vsim -c top -do "run.tcl" 
# Start time: 12:56:15 on Mar 19,2022
# ** Note: (vsim-3812) Design is being optimized...
# ** Warning: ../tb/monitor.sv(49): (vopt-2240) Treating stand-alone use of function 'begin_tr' as an implicit VOID cast.
# ** Warning: ../tb/monitor_out.sv(48): (vopt-2240) Treating stand-alone use of function 'begin_tr' as an implicit VOID cast.
# //  Questa Sim-64
# //  Version 10.7c linux_x86_64 Aug 17 2018
# //
# //  Copyright 1991-2018 Mentor Graphics Corporation
# //  All Rights Reserved.
# //
# //  QuestaSim and its associated documentation contain trade
# //  secrets and commercial or financial information that are the property of
# //  Mentor Graphics Corporation and are privileged, confidential,
# //  and exempt from disclosure under the Freedom of Information Act,
# //  5 U.S.C. Section 552. Furthermore, this information
# //  is prohibited from disclosure under the Trade Secrets Act,
# //  18 U.S.C. Section 1905.
# //
# Loading sv_std.std
# Loading mtiUvm.uvm_pkg
# Loading work.top_sv_unit(fast)
# Loading work.top(fast)
# Loading work.DUT(fast)
# Loading mtiUvm.questa_uvm_pkg(fast)
# Loading work.dut_if(fast)
# ** Warning: (vsim-3838) Variable '/top/out/data' written by continuous and procedural assignments. 
# One of the assignments is implicit. See ../src/DUT.sv(9).
#    Time: 0 ns  Iteration: 0  Instance: /top/sum File: ../src/DUT.sv Line: 3
# ** Warning: (vsim-3764) Stand-alone call to function 'begin_tr' treated as implicit void cast.
#    Time: 0 ns  Iteration: 0  Region: /top_sv_unit::driver File: ../tb/driver.sv Line: 67
# Loading /software/mentor/questa10.7c/questasim/uvm-1.1d/linux_x86_64/uvm_dpi.so
# do run.tcl
# ----------------------------------------------------------------
# UVM-1.1d
# (C) 2007-2013 Mentor Graphics Corporation
# (C) 2007-2013 Cadence Design Systems, Inc.
# (C) 2006-2013 Synopsys, Inc.
# (C) 2011-2013 Cypress Semiconductor Corp.
# ----------------------------------------------------------------
# 
#   ***********       IMPORTANT RELEASE NOTES         ************
# 
#   You are using a version of the UVM library that has been compiled
#   with `UVM_NO_DEPRECATED undefined.
#   See http://www.eda.org/svdb/view.php?id=3313 for more details.
# 
#   You are using a version of the UVM library that has been compiled
#   with `UVM_OBJECT_MUST_HAVE_CONSTRUCTOR undefined.
#   See http://www.eda.org/svdb/view.php?id=3770 for more details.
# 
#       (Specify +UVM_NO_RELNOTES to turn off this notice)
# 
# UVM_INFO verilog_src/questa_uvm_pkg-1.2/src/questa_uvm_pkg.sv(215) @ 0: reporter [Questa UVM] QUESTA_UVM-1.2.3
# UVM_INFO verilog_src/questa_uvm_pkg-1.2/src/questa_uvm_pkg.sv(216) @ 0: reporter [Questa UVM]  questa_uvm::init(+struct)
# UVM_INFO @ 0: reporter [RNTST] Running test simple_test...
# adder: input A =         288, input B = -1776024727, output OUT = -1776024439
# adder: input A = 00000000000000000000000100100000, input B = 10010110001001000000001101101001, output OUT = 10010110001001000000010010001001
# refmod: input A =         288, input B = -1776024727, output OUT = -1776024439
# refmod: input A = 00000000000000000000000100100000, input B = 10010110001001000000001101101001, output OUT = 10010110001001000000010010001001
# UVM_INFO @ 45: uvm_test_top.env_h.comp [Comparator Match] 
# adder: input A =         552, input B = -1520662025, output OUT = -1520661473
# adder: input A = 00000000000000000000001000101000, input B = 10100101010111001000100111110111, output OUT = 10100101010111001000110000011111
# refmod: input A =         552, input B = -1520662025, output OUT = -1520661473
# refmod: input A = 00000000000000000000001000101000, input B = 10100101010111001000100111110111, output OUT = 10100101010111001000110000011111
# UVM_INFO @ 75: uvm_test_top.env_h.comp [Comparator Match] 
# adder: input A =         539, input B = -1573106183, output OUT = -1573105644
# adder: input A = 00000000000000000000001000011011, input B = 10100010001111000100110111111001, output OUT = 10100010001111000101000000010100
# refmod: input A =         539, input B = -1573106183, output OUT = -1573105644
# refmod: input A = 00000000000000000000001000011011, input B = 10100010001111000100110111111001, output OUT = 10100010001111000101000000010100
# UVM_INFO @ 105: uvm_test_top.env_h.comp [Comparator Match] 
# adder: input A =         488, input B = -1215838330, output OUT = -1215837842
# adder: input A = 00000000000000000000000111101000, input B = 10110111100001111100011110000110, output OUT = 10110111100001111100100101101110
# refmod: input A =         488, input B = -1215838330, output OUT = -1215837842
# refmod: input A = 00000000000000000000000111101000, input B = 10110111100001111100011110000110, output OUT = 10110111100001111100100101101110
# UVM_INFO @ 135: uvm_test_top.env_h.comp [Comparator Match] 
# adder: input A =         712, input B = -1480549025, output OUT = -1480548313
# adder: input A = 00000000000000000000001011001000, input B = 10100111110000001001110101011111, output OUT = 10100111110000001010000000100111
# refmod: input A =         712, input B = -1480549025, output OUT = -1480548313
# refmod: input A = 00000000000000000000001011001000, input B = 10100111110000001001110101011111, output OUT = 10100111110000001010000000100111
# UVM_INFO @ 165: uvm_test_top.env_h.comp [Comparator Match] 
# adder: input A =         175, input B = -1566820422, output OUT = -1566820247
# adder: input A = 00000000000000000000000010101111, input B = 10100010100111000011011110111010, output OUT = 10100010100111000011100001101001
# refmod: input A =         175, input B = -1566820422, output OUT = -1566820247
# refmod: input A = 00000000000000000000000010101111, input B = 10100010100111000011011110111010, output OUT = 10100010100111000011100001101001
# UVM_INFO @ 195: uvm_test_top.env_h.comp [Comparator Match] 
# adder: input A =         363, input B = -1571034979, output OUT = -1571034616
# adder: input A = 00000000000000000000000101101011, input B = 10100010010110111110100010011101, output OUT = 10100010010110111110101000001000
# refmod: input A =         363, input B = -1571034979, output OUT = -1571034616
# refmod: input A = 00000000000000000000000101101011, input B = 10100010010110111110100010011101, output OUT = 10100010010110111110101000001000
# UVM_INFO @ 225: uvm_test_top.env_h.comp [Comparator Match] 
# adder: input A =         162, input B = -1157173714, output OUT = -1157173552
# adder: input A = 00000000000000000000000010100010, input B = 10111011000001101110111000101110, output OUT = 10111011000001101110111011010000
# refmod: input A =         162, input B = -1157173714, output OUT = -1157173552
# refmod: input A = 00000000000000000000000010100010, input B = 10111011000001101110111000101110, output OUT = 10111011000001101110111011010000
# UVM_INFO @ 255: uvm_test_top.env_h.comp [Comparator Match] 
# adder: input A =         248, input B =  -978161107, output OUT =  -978160859
# adder: input A = 00000000000000000000000011111000, input B = 11000101101100100111001000101101, output OUT = 11000101101100100111001100100101
# refmod: input A =         248, input B =  -978161107, output OUT =  -978160859
# refmod: input A = 00000000000000000000000011111000, input B = 11000101101100100111001000101101, output OUT = 11000101101100100111001100100101
# UVM_INFO @ 285: uvm_test_top.env_h.comp [Comparator Match] 
# adder: input A =         665, input B =  -902369319, output OUT =  -902368654
# adder: input A = 00000000000000000000001010011001, input B = 11001010001101101110111111011001, output OUT = 11001010001101101111001001110010
# refmod: input A =         665, input B =  -902369319, output OUT =  -902368654
# refmod: input A = 00000000000000000000001010011001, input B = 11001010001101101110111111011001, output OUT = 11001010001101101111001001110010
# UVM_INFO @ 315: uvm_test_top.env_h.comp [Comparator Match] 
# adder: input A =         224, input B = -1062293009, output OUT = -1062292785
# adder: input A = 00000000000000000000000011100000, input B = 11000000101011101011000111101111, output OUT = 11000000101011101011001011001111
# refmod: input A =         224, input B = -1062293009, output OUT = -1062292785
# refmod: input A = 00000000000000000000000011100000, input B = 11000000101011101011000111101111, output OUT = 11000000101011101011001011001111
# UVM_INFO @ 345: uvm_test_top.env_h.comp [Comparator Match] 
# adder: input A =         111, input B = -1837326850, output OUT = -1837326739
# adder: input A = 00000000000000000000000001101111, input B = 10010010011111001001110111111110, output OUT = 10010010011111001001111001101101
# refmod: input A =         111, input B = -1837326850, output OUT = -1837326739
# refmod: input A = 00000000000000000000000001101111, input B = 10010010011111001001110111111110, output OUT = 10010010011111001001111001101101
# UVM_INFO @ 375: uvm_test_top.env_h.comp [Comparator Match] 
# adder: input A =         881, input B =  -590643682, output OUT =  -590642801
# adder: input A = 00000000000000000000001101110001, input B = 11011100110010110111111000011110, output OUT = 11011100110010111000000110001111
# refmod: input A =         881, input B =  -590643682, output OUT =  -590642801
# refmod: input A = 00000000000000000000001101110001, input B = 11011100110010110111111000011110, output OUT = 11011100110010111000000110001111
# UVM_INFO @ 405: uvm_test_top.env_h.comp [Comparator Match] 
# adder: input A =         141, input B =  -792252582, output OUT =  -792252441
# adder: input A = 00000000000000000000000010001101, input B = 11010000110001110010111101011010, output OUT = 11010000110001110010111111100111
# refmod: input A =         141, input B =  -792252582, output OUT =  -792252441
# refmod: input A = 00000000000000000000000010001101, input B = 11010000110001110010111101011010, output OUT = 11010000110001110010111111100111
# UVM_INFO @ 435: uvm_test_top.env_h.comp [Comparator Match] 
# adder: input A =         396, input B = -1166972873, output OUT = -1166972477
# adder: input A = 00000000000000000000000110001100, input B = 10111010011100010110100000110111, output OUT = 10111010011100010110100111000011
# refmod: input A =         396, input B = -1166972873, output OUT = -1166972477
# refmod: input A = 00000000000000000000000110001100, input B = 10111010011100010110100000110111, output OUT = 10111010011100010110100111000011
# UVM_INFO @ 465: uvm_test_top.env_h.comp [Comparator Match] 
# adder: input A =         170, input B = -1593346039, output OUT = -1593345869
# adder: input A = 00000000000000000000000010101010, input B = 10100001000001110111100000001001, output OUT = 10100001000001110111100010110011
# refmod: input A =         170, input B = -1593346039, output OUT = -1593345869
# refmod: input A = 00000000000000000000000010101010, input B = 10100001000001110111100000001001, output OUT = 10100001000001110111100010110011
# UVM_INFO @ 495: uvm_test_top.env_h.comp [Comparator Match] 
# adder: input A =         871, input B =  -506211766, output OUT =  -506210895
# adder: input A = 00000000000000000000001101100111, input B = 11100001110100111101001001001010, output OUT = 11100001110100111101010110110001
# refmod: input A =         871, input B =  -506211766, output OUT =  -506210895
# refmod: input A = 00000000000000000000001101100111, input B = 11100001110100111101001001001010, output OUT = 11100001110100111101010110110001
# UVM_INFO @ 525: uvm_test_top.env_h.comp [Comparator Match] 
# adder: input A =         172, input B = -1882946831, output OUT = -1882946659
# adder: input A = 00000000000000000000000010101100, input B = 10001111110001001000001011110001, output OUT = 10001111110001001000001110011101
# refmod: input A =         172, input B = -1882946831, output OUT = -1882946659
# refmod: input A = 00000000000000000000000010101100, input B = 10001111110001001000001011110001, output OUT = 10001111110001001000001110011101
# UVM_INFO @ 555: uvm_test_top.env_h.comp [Comparator Match] 
# adder: input A =         992, input B = -1144318358, output OUT = -1144317366
# adder: input A = 00000000000000000000001111100000, input B = 10111011110010110001011001101010, output OUT = 10111011110010110001101001001010
# refmod: input A =         992, input B = -1144318358, output OUT = -1144317366
# refmod: input A = 00000000000000000000001111100000, input B = 10111011110010110001011001101010, output OUT = 10111011110010110001101001001010
# UVM_INFO @ 585: uvm_test_top.env_h.comp [Comparator Match] 
# adder: input A =         579, input B = -1411990393, output OUT = -1411989814
# adder: input A = 00000000000000000000001001000011, input B = 10101011110101101011110010000111, output OUT = 10101011110101101011111011001010
# refmod: input A =         579, input B = -1411990393, output OUT = -1411989814
# refmod: input A = 00000000000000000000001001000011, input B = 10101011110101101011110010000111, output OUT = 10101011110101101011111011001010
# UVM_INFO @ 615: uvm_test_top.env_h.comp [Comparator Match] 
# adder: input A =         493, input B =  -325740181, output OUT =  -325739688
# adder: input A = 00000000000000000000000111101101, input B = 11101100100101011001100101101011, output OUT = 11101100100101011001101101011000
# refmod: input A =         493, input B =  -325740181, output OUT =  -325739688
# refmod: input A = 00000000000000000000000111101101, input B = 11101100100101011001100101101011, output OUT = 11101100100101011001101101011000
# UVM_INFO @ 645: uvm_test_top.env_h.comp [Comparator Match] 
# adder: input A =         996, input B =  -130002884, output OUT =  -130001888
# adder: input A = 00000000000000000000001111100100, input B = 11111000010000000101000000111100, output OUT = 11111000010000000101010000100000
# refmod: input A =         996, input B =  -130002884, output OUT =  -130001888
# refmod: input A = 00000000000000000000001111100100, input B = 11111000010000000101000000111100, output OUT = 11111000010000000101010000100000
# UVM_INFO @ 675: uvm_test_top.env_h.comp [Comparator Match] 
# adder: input A =         106, input B =  -247435098, output OUT =  -247434992
# adder: input A = 00000000000000000000000001101010, input B = 11110001010000000111000010100110, output OUT = 11110001010000000111000100010000
# refmod: input A =         106, input B =  -247435098, output OUT =  -247434992
# refmod: input A = 00000000000000000000000001101010, input B = 11110001010000000111000010100110, output OUT = 11110001010000000111000100010000
# UVM_INFO @ 705: uvm_test_top.env_h.comp [Comparator Match] 
# adder: input A =         954, input B = -1046134977, output OUT = -1046134023
# adder: input A = 00000000000000000000001110111010, input B = 11000001101001010011111100111111, output OUT = 11000001101001010100001011111001
# refmod: input A =         954, input B = -1046134977, output OUT = -1046134023
# refmod: input A = 00000000000000000000001110111010, input B = 11000001101001010011111100111111, output OUT = 11000001101001010100001011111001
# UVM_INFO @ 735: uvm_test_top.env_h.comp [Comparator Match] 
# adder: input A =         652, input B =  -798169060, output OUT =  -798168408
# adder: input A = 00000000000000000000001010001100, input B = 11010000011011001110100000011100, output OUT = 11010000011011001110101010101000
# refmod: input A =         652, input B =  -798169060, output OUT =  -798168408
# refmod: input A = 00000000000000000000001010001100, input B = 11010000011011001110100000011100, output OUT = 11010000011011001110101010101000
# UVM_INFO @ 765: uvm_test_top.env_h.comp [Comparator Match] 
# adder: input A =         744, input B = -1897215308, output OUT = -1897214564
# adder: input A = 00000000000000000000001011101000, input B = 10001110111010101100101010110100, output OUT = 10001110111010101100110110011100
# refmod: input A =         744, input B = -1897215308, output OUT = -1897214564
# refmod: input A = 00000000000000000000001011101000, input B = 10001110111010101100101010110100, output OUT = 10001110111010101100110110011100
# UVM_INFO @ 795: uvm_test_top.env_h.comp [Comparator Match] 
# adder: input A =         212, input B = -1023808245, output OUT = -1023808033
# adder: input A = 00000000000000000000000011010100, input B = 11000010111110011110110100001011, output OUT = 11000010111110011110110111011111
# refmod: input A =         212, input B = -1023808245, output OUT = -1023808033
# refmod: input A = 00000000000000000000000011010100, input B = 11000010111110011110110100001011, output OUT = 11000010111110011110110111011111
# UVM_INFO @ 825: uvm_test_top.env_h.comp [Comparator Match] 
# adder: input A =         181, input B = -1709090863, output OUT = -1709090682
# adder: input A = 00000000000000000000000010110101, input B = 10011010001000010101011111010001, output OUT = 10011010001000010101100010000110
# refmod: input A =         181, input B = -1709090863, output OUT = -1709090682
# refmod: input A = 00000000000000000000000010110101, input B = 10011010001000010101011111010001, output OUT = 10011010001000010101100010000110
# UVM_INFO @ 855: uvm_test_top.env_h.comp [Comparator Match] 
# adder: input A =         270, input B =        2554, output OUT =        2824
# adder: input A = 00000000000000000000000100001110, input B = 00000000000000000000100111111010, output OUT = 00000000000000000000101100001000
# refmod: input A =         270, input B =        2554, output OUT =        2824
# refmod: input A = 00000000000000000000000100001110, input B = 00000000000000000000100111111010, output OUT = 00000000000000000000101100001000
# UVM_INFO @ 885: uvm_test_top.env_h.comp [Comparator Match] 
# adder: input A =         768, input B =  -667874342, output OUT =  -667873574
# adder: input A = 00000000000000000000001100000000, input B = 11011000001100010000101111011010, output OUT = 11011000001100010000111011011010
# refmod: input A =         768, input B =  -667874342, output OUT =  -667873574
# refmod: input A = 00000000000000000000001100000000, input B = 11011000001100010000101111011010, output OUT = 11011000001100010000111011011010
# UVM_INFO @ 915: uvm_test_top.env_h.comp [Comparator Match] 
# adder: input A =         487, input B = -1491730013, output OUT = -1491729526
# adder: input A = 00000000000000000000000111100111, input B = 10100111000101100000000110100011, output OUT = 10100111000101100000001110001010
# refmod: input A =         487, input B = -1491730013, output OUT = -1491729526
# refmod: input A = 00000000000000000000000111100111, input B = 10100111000101100000000110100011, output OUT = 10100111000101100000001110001010
# UVM_INFO @ 945: uvm_test_top.env_h.comp [Comparator Match] 
# adder: input A =         307, input B = -1646721008, output OUT = -1646720701
# adder: input A = 00000000000000000000000100110011, input B = 10011101110110010000100000010000, output OUT = 10011101110110010000100101000011
# refmod: input A =         307, input B = -1646721008, output OUT = -1646720701
# refmod: input A = 00000000000000000000000100110011, input B = 10011101110110010000100000010000, output OUT = 10011101110110010000100101000011
# UVM_INFO @ 975: uvm_test_top.env_h.comp [Comparator Match] 
# adder: input A =         399, input B =  -841519096, output OUT =  -841518697
# adder: input A = 00000000000000000000000110001111, input B = 11001101110101110111000000001000, output OUT = 11001101110101110111000110010111
# refmod: input A =         399, input B =  -841519096, output OUT =  -841518697
# refmod: input A = 00000000000000000000000110001111, input B = 11001101110101110111000000001000, output OUT = 11001101110101110111000110010111
# UVM_INFO @ 1005: uvm_test_top.env_h.comp [Comparator Match] 
# adder: input A =         949, input B = -1127088747, output OUT = -1127087798
# adder: input A = 00000000000000000000001110110101, input B = 10111100110100011111110110010101, output OUT = 10111100110100100000000101001010
# refmod: input A =         949, input B = -1127088747, output OUT = -1127087798
# refmod: input A = 00000000000000000000001110110101, input B = 10111100110100011111110110010101, output OUT = 10111100110100100000000101001010
# UVM_INFO @ 1035: uvm_test_top.env_h.comp [Comparator Match] 
# adder: input A =         555, input B = -1086444974, output OUT = -1086444419
# adder: input A = 00000000000000000000001000101011, input B = 10111111001111100010101001010010, output OUT = 10111111001111100010110001111101
# refmod: input A =         555, input B = -1086444974, output OUT = -1086444419
# refmod: input A = 00000000000000000000001000101011, input B = 10111111001111100010101001010010, output OUT = 10111111001111100010110001111101
# UVM_INFO @ 1065: uvm_test_top.env_h.comp [Comparator Match] 
# adder: input A =         397, input B = -1278389089, output OUT = -1278388692
# adder: input A = 00000000000000000000000110001101, input B = 10110011110011010101010010011111, output OUT = 10110011110011010101011000101100
# refmod: input A =         397, input B = -1278389089, output OUT = -1278388692
# refmod: input A = 00000000000000000000000110001101, input B = 10110011110011010101010010011111, output OUT = 10110011110011010101011000101100
# UVM_INFO @ 1095: uvm_test_top.env_h.comp [Comparator Match] 
# adder: input A =         257, input B = -1317971962, output OUT = -1317971705
# adder: input A = 00000000000000000000000100000001, input B = 10110001011100010101100000000110, output OUT = 10110001011100010101100100000111
# refmod: input A =         257, input B = -1317971962, output OUT = -1317971705
# refmod: input A = 00000000000000000000000100000001, input B = 10110001011100010101100000000110, output OUT = 10110001011100010101100100000111
# UVM_INFO @ 1125: uvm_test_top.env_h.comp [Comparator Match] 
# adder: input A =         673, input B =  -268387263, output OUT =  -268386590
# adder: input A = 00000000000000000000001010100001, input B = 11110000000000001011110001000001, output OUT = 11110000000000001011111011100010
# refmod: input A =         673, input B =  -268387263, output OUT =  -268386590
# refmod: input A = 00000000000000000000001010100001, input B = 11110000000000001011110001000001, output OUT = 11110000000000001011111011100010
# UVM_INFO @ 1155: uvm_test_top.env_h.comp [Comparator Match] 
# adder: input A =         584, input B =   -30883012, output OUT =   -30882428
# adder: input A = 00000000000000000000001001001000, input B = 11111110001010001100001100111100, output OUT = 11111110001010001100010110000100
# refmod: input A =         584, input B =   -30883012, output OUT =   -30882428
# refmod: input A = 00000000000000000000001001001000, input B = 11111110001010001100001100111100, output OUT = 11111110001010001100010110000100
# UVM_INFO @ 1185: uvm_test_top.env_h.comp [Comparator Match] 
# adder: input A =         841, input B = -1469432226, output OUT = -1469431385
# adder: input A = 00000000000000000000001101001001, input B = 10101000011010100011111001011110, output OUT = 10101000011010100100000110100111
# refmod: input A =         841, input B = -1469432226, output OUT = -1469431385
# refmod: input A = 00000000000000000000001101001001, input B = 10101000011010100011111001011110, output OUT = 10101000011010100100000110100111
# UVM_INFO @ 1215: uvm_test_top.env_h.comp [Comparator Match] 
# adder: input A =         606, input B =   -59383473, output OUT =   -59382867
# adder: input A = 00000000000000000000001001011110, input B = 11111100011101011110000101001111, output OUT = 11111100011101011110001110101101
# refmod: input A =         606, input B =   -59383473, output OUT =   -59382867
# refmod: input A = 00000000000000000000001001011110, input B = 11111100011101011110000101001111, output OUT = 11111100011101011110001110101101
# UVM_INFO @ 1245: uvm_test_top.env_h.comp [Comparator Match] 
# adder: input A =         660, input B =  -775247425, output OUT =  -775246765
# adder: input A = 00000000000000000000001010010100, input B = 11010001110010101010100110111111, output OUT = 11010001110010101010110001010011
# refmod: input A =         660, input B =  -775247425, output OUT =  -775246765
# refmod: input A = 00000000000000000000001010010100, input B = 11010001110010101010100110111111, output OUT = 11010001110010101010110001010011
# UVM_INFO @ 1275: uvm_test_top.env_h.comp [Comparator Match] 
# adder: input A =         144, input B = -1005458397, output OUT = -1005458253
# adder: input A = 00000000000000000000000010010000, input B = 11000100000100011110110000100011, output OUT = 11000100000100011110110010110011
# refmod: input A =         144, input B = -1005458397, output OUT = -1005458253
# refmod: input A = 00000000000000000000000010010000, input B = 11000100000100011110110000100011, output OUT = 11000100000100011110110010110011
# UVM_INFO @ 1305: uvm_test_top.env_h.comp [Comparator Match] 
# adder: input A =         471, input B = -1091983304, output OUT = -1091982833
# adder: input A = 00000000000000000000000111010111, input B = 10111110111010011010100000111000, output OUT = 10111110111010011010101000001111
# refmod: input A =         471, input B = -1091983304, output OUT = -1091982833
# refmod: input A = 00000000000000000000000111010111, input B = 10111110111010011010100000111000, output OUT = 10111110111010011010101000001111
# UVM_INFO @ 1335: uvm_test_top.env_h.comp [Comparator Match] 
# adder: input A =         244, input B = -2090157076, output OUT = -2090156832
# adder: input A = 00000000000000000000000011110100, input B = 10000011011010101011101111101100, output OUT = 10000011011010101011110011100000
# refmod: input A =         244, input B = -2090157076, output OUT = -2090156832
# refmod: input A = 00000000000000000000000011110100, input B = 10000011011010101011101111101100, output OUT = 10000011011010101011110011100000
# UVM_INFO @ 1365: uvm_test_top.env_h.comp [Comparator Match] 
# adder: input A =         978, input B =  -603480920, output OUT =  -603479942
# adder: input A = 00000000000000000000001111010010, input B = 11011100000001111001110010101000, output OUT = 11011100000001111010000001111010
# refmod: input A =         978, input B =  -603480920, output OUT =  -603479942
# refmod: input A = 00000000000000000000001111010010, input B = 11011100000001111001110010101000, output OUT = 11011100000001111010000001111010
# UVM_INFO @ 1395: uvm_test_top.env_h.comp [Comparator Match] 
# adder: input A =         785, input B =  -204496982, output OUT =  -204496197
# adder: input A = 00000000000000000000001100010001, input B = 11110011110011111001111110101010, output OUT = 11110011110011111010001010111011
# refmod: input A =         785, input B =  -204496982, output OUT =  -204496197
# refmod: input A = 00000000000000000000001100010001, input B = 11110011110011111001111110101010, output OUT = 11110011110011111010001010111011
# UVM_INFO @ 1425: uvm_test_top.env_h.comp [Comparator Match] 
# adder: input A =         300, input B =  -652348570, output OUT =  -652348270
# adder: input A = 00000000000000000000000100101100, input B = 11011001000111011111001101100110, output OUT = 11011001000111011111010010010010
# refmod: input A =         300, input B =  -652348570, output OUT =  -652348270
# refmod: input A = 00000000000000000000000100101100, input B = 11011001000111011111001101100110, output OUT = 11011001000111011111010010010010
# UVM_INFO @ 1455: uvm_test_top.env_h.comp [Comparator Match] 
# adder: input A =         679, input B =   -11816149, output OUT =   -11815470
# adder: input A = 00000000000000000000001010100111, input B = 11111111010010111011001100101011, output OUT = 11111111010010111011010111010010
# refmod: input A =         679, input B =   -11816149, output OUT =   -11815470
# refmod: input A = 00000000000000000000001010100111, input B = 11111111010010111011001100101011, output OUT = 11111111010010111011010111010010
# UVM_INFO @ 1485: uvm_test_top.env_h.comp [Comparator Match] 
# adder: input A =         773, input B = -1485015274, output OUT = -1485014501
# adder: input A = 00000000000000000000001100000101, input B = 10100111011111000111011100010110, output OUT = 10100111011111000111101000011011
# refmod: input A =         773, input B = -1485015274, output OUT = -1485014501
# refmod: input A = 00000000000000000000001100000101, input B = 10100111011111000111011100010110, output OUT = 10100111011111000111101000011011
# UVM_INFO @ 1515: uvm_test_top.env_h.comp [Comparator Match] 
# adder: input A =         802, input B = -1701162500, output OUT = -1701161698
# adder: input A = 00000000000000000000001100100010, input B = 10011010100110100101000111111100, output OUT = 10011010100110100101010100011110
# refmod: input A =         802, input B = -1701162500, output OUT = -1701161698
# refmod: input A = 00000000000000000000001100100010, input B = 10011010100110100101000111111100, output OUT = 10011010100110100101010100011110
# UVM_INFO @ 1545: uvm_test_top.env_h.comp [Comparator Match] 
# adder: input A =         457, input B =  -922477395, output OUT =  -922476938
# adder: input A = 00000000000000000000000111001001, input B = 11001001000001000001110010101101, output OUT = 11001001000001000001111001110110
# refmod: input A =         457, input B =  -922477395, output OUT =  -922476938
# refmod: input A = 00000000000000000000000111001001, input B = 11001001000001000001110010101101, output OUT = 11001001000001000001111001110110
# UVM_INFO @ 1575: uvm_test_top.env_h.comp [Comparator Match] 
# adder: input A =         250, input B =  -575830296, output OUT =  -575830046
# adder: input A = 00000000000000000000000011111010, input B = 11011101101011011000011011101000, output OUT = 11011101101011011000011111100010
# refmod: input A =         250, input B =  -575830296, output OUT =  -575830046
# refmod: input A = 00000000000000000000000011111010, input B = 11011101101011011000011011101000, output OUT = 11011101101011011000011111100010
# UVM_INFO @ 1605: uvm_test_top.env_h.comp [Comparator Match] 
# adder: input A =         887, input B = -2033190238, output OUT = -2033189351
# adder: input A = 00000000000000000000001101110111, input B = 10000110110011111111101010100010, output OUT = 10000110110011111111111000011001
# refmod: input A =         887, input B = -2033190238, output OUT = -2033189351
# refmod: input A = 00000000000000000000001101110111, input B = 10000110110011111111101010100010, output OUT = 10000110110011111111111000011001
# UVM_INFO @ 1635: uvm_test_top.env_h.comp [Comparator Match] 
# adder: input A =         397, input B =  -403256751, output OUT =  -403256354
# adder: input A = 00000000000000000000000110001101, input B = 11100111111101101100101001010001, output OUT = 11100111111101101100101111011110
# refmod: input A =         397, input B =  -403256751, output OUT =  -403256354
# refmod: input A = 00000000000000000000000110001101, input B = 11100111111101101100101001010001, output OUT = 11100111111101101100101111011110
# UVM_INFO @ 1665: uvm_test_top.env_h.comp [Comparator Match] 
# adder: input A =         231, input B = -2039728149, output OUT = -2039727918
# adder: input A = 00000000000000000000000011100111, input B = 10000110011011000011011111101011, output OUT = 10000110011011000011100011010010
# refmod: input A =         231, input B = -2039728149, output OUT = -2039727918
# refmod: input A = 00000000000000000000000011100111, input B = 10000110011011000011011111101011, output OUT = 10000110011011000011100011010010
# UVM_INFO @ 1695: uvm_test_top.env_h.comp [Comparator Match] 
# adder: input A =         878, input B = -1978912666, output OUT = -1978911788
# adder: input A = 00000000000000000000001101101110, input B = 10001010000011000011000001100110, output OUT = 10001010000011000011001111010100
# refmod: input A =         878, input B = -1978912666, output OUT = -1978911788
# refmod: input A = 00000000000000000000001101101110, input B = 10001010000011000011000001100110, output OUT = 10001010000011000011001111010100
# UVM_INFO @ 1725: uvm_test_top.env_h.comp [Comparator Match] 
# adder: input A =         276, input B = -1577739177, output OUT = -1577738901
# adder: input A = 00000000000000000000000100010100, input B = 10100001111101011001110001010111, output OUT = 10100001111101011001110101101011
# refmod: input A =         276, input B = -1577739177, output OUT = -1577738901
# refmod: input A = 00000000000000000000000100010100, input B = 10100001111101011001110001010111, output OUT = 10100001111101011001110101101011
# UVM_INFO @ 1755: uvm_test_top.env_h.comp [Comparator Match] 
# adder: input A =         111, input B = -2005378851, output OUT = -2005378740
# adder: input A = 00000000000000000000000001101111, input B = 10001000011110000101100011011101, output OUT = 10001000011110000101100101001100
# refmod: input A =         111, input B = -2005378851, output OUT = -2005378740
# refmod: input A = 00000000000000000000000001101111, input B = 10001000011110000101100011011101, output OUT = 10001000011110000101100101001100
# UVM_INFO @ 1785: uvm_test_top.env_h.comp [Comparator Match] 
# adder: input A =         597, input B = -1458669002, output OUT = -1458668405
# adder: input A = 00000000000000000000001001010101, input B = 10101001000011100111101000110110, output OUT = 10101001000011100111110010001011
# refmod: input A =         597, input B = -1458669002, output OUT = -1458668405
# refmod: input A = 00000000000000000000001001010101, input B = 10101001000011100111101000110110, output OUT = 10101001000011100111110010001011
# UVM_INFO @ 1815: uvm_test_top.env_h.comp [Comparator Match] 
# adder: input A =         354, input B =  -767651391, output OUT =  -767651037
# adder: input A = 00000000000000000000000101100010, input B = 11010010001111101001000111000001, output OUT = 11010010001111101001001100100011
# refmod: input A =         354, input B =  -767651391, output OUT =  -767651037
# refmod: input A = 00000000000000000000000101100010, input B = 11010010001111101001000111000001, output OUT = 11010010001111101001001100100011
# UVM_INFO @ 1845: uvm_test_top.env_h.comp [Comparator Match] 
# adder: input A =         134, input B =  -989219044, output OUT =  -989218910
# adder: input A = 00000000000000000000000010000110, input B = 11000101000010011011011100011100, output OUT = 11000101000010011011011110100010
# refmod: input A =         134, input B =  -989219044, output OUT =  -989218910
# refmod: input A = 00000000000000000000000010000110, input B = 11000101000010011011011100011100, output OUT = 11000101000010011011011110100010
# UVM_INFO @ 1875: uvm_test_top.env_h.comp [Comparator Match] 
# adder: input A =         164, input B =  -675005039, output OUT =  -675004875
# adder: input A = 00000000000000000000000010100100, input B = 11010111110001000011110110010001, output OUT = 11010111110001000011111000110101
# refmod: input A =         164, input B =  -675005039, output OUT =  -675004875
# refmod: input A = 00000000000000000000000010100100, input B = 11010111110001000011110110010001, output OUT = 11010111110001000011111000110101
# UVM_INFO @ 1905: uvm_test_top.env_h.comp [Comparator Match] 
# adder: input A =         124, input B =  -713978129, output OUT =  -713978005
# adder: input A = 00000000000000000000000001111100, input B = 11010101011100011000111011101111, output OUT = 11010101011100011000111101101011
# refmod: input A =         124, input B =  -713978129, output OUT =  -713978005
# refmod: input A = 00000000000000000000000001111100, input B = 11010101011100011000111011101111, output OUT = 11010101011100011000111101101011
# UVM_INFO @ 1935: uvm_test_top.env_h.comp [Comparator Match] 
# adder: input A =         880, input B = -1161610919, output OUT = -1161610039
# adder: input A = 00000000000000000000001101110000, input B = 10111010110000110011100101011001, output OUT = 10111010110000110011110011001001
# refmod: input A =         880, input B = -1161610919, output OUT = -1161610039
# refmod: input A = 00000000000000000000001101110000, input B = 10111010110000110011100101011001, output OUT = 10111010110000110011110011001001
# UVM_INFO @ 1965: uvm_test_top.env_h.comp [Comparator Match] 
# adder: input A =         388, input B = -1896699353, output OUT = -1896698965
# adder: input A = 00000000000000000000000110000100, input B = 10001110111100101010101000100111, output OUT = 10001110111100101010101110101011
