Lab4/lab4.2/sim/MBE_out.txt
Reading pref.tcl

# 10.7c

# vsim -c top -do "run.tcl" 
# Start time: 13:46:09 on Mar 19,2022
# ** Note: (vsim-3812) Design is being optimized...
# ** Warning: ../tb/monitor.sv(49): (vopt-2240) Treating stand-alone use of function 'begin_tr' as an implicit VOID cast.
# ** Warning: ../tb/monitor_out.sv(48): (vopt-2240) Treating stand-alone use of function 'begin_tr' as an implicit VOID cast.
# //  Questa Sim-64
# //  Version 10.7c linux_x86_64 Aug 17 2018
# //
# //  Copyright 1991-2018 Mentor Graphics Corporation
# //  All Rights Reserved.
# //
# //  QuestaSim and its associated documentation contain trade
# //  secrets and commercial or financial information that are the property of
# //  Mentor Graphics Corporation and are privileged, confidential,
# //  and exempt from disclosure under the Freedom of Information Act,
# //  5 U.S.C. Section 552. Furthermore, this information
# //  is prohibited from disclosure under the Trade Secrets Act,
# //  18 U.S.C. Section 1905.
# //
# Loading sv_std.std
# Loading mtiUvm.uvm_pkg
# Loading work.top_sv_unit(fast)
# Loading work.top(fast)
# Loading work.DUT(fast)
# Loading mtiUvm.questa_uvm_pkg(fast)
# Loading work.dut_if(fast)
# Loading std.standard
# Loading std.textio(body)
# Loading ieee.std_logic_1164(body)
# Loading ieee.numeric_std(body)
# Loading work.multiplier(struct)#1
# Loading work.partial_products_gen(rtl)#1
# Loading work.functions(body)
# Loading work.dadda_tree(rtl)#1
# Loading work.fa(beh)#1
# Loading work.ha(beh)#1
# ** Warning: (vsim-3839) Variable '/top/out/data', driven via a port connection, is multiply driven. See ../src/DUT.sv(3).
#    Time: 0 ns  Iteration: 0  Instance: /top/sum File: ../src/DUT.sv Line: 9
# ** Warning: (vsim-3764) Stand-alone call to function 'begin_tr' treated as implicit void cast.
#    Time: 0 ns  Iteration: 0  Region: /top_sv_unit::driver File: ../tb/driver.sv Line: 67
# Loading /software/mentor/questa10.7c/questasim/uvm-1.1d/linux_x86_64/uvm_dpi.so
# do run.tcl
# ----------------------------------------------------------------
# UVM-1.1d
# (C) 2007-2013 Mentor Graphics Corporation
# (C) 2007-2013 Cadence Design Systems, Inc.
# (C) 2006-2013 Synopsys, Inc.
# (C) 2011-2013 Cypress Semiconductor Corp.
# ----------------------------------------------------------------
# 
#   ***********       IMPORTANT RELEASE NOTES         ************
# 
#   You are using a version of the UVM library that has been compiled
#   with `UVM_NO_DEPRECATED undefined.
#   See http://www.eda.org/svdb/view.php?id=3313 for more details.
# 
#   You are using a version of the UVM library that has been compiled
#   with `UVM_OBJECT_MUST_HAVE_CONSTRUCTOR undefined.
#   See http://www.eda.org/svdb/view.php?id=3770 for more details.
# 
#       (Specify +UVM_NO_RELNOTES to turn off this notice)
# 
# UVM_INFO verilog_src/questa_uvm_pkg-1.2/src/questa_uvm_pkg.sv(215) @ 0: reporter [Questa UVM] QUESTA_UVM-1.2.3
# UVM_INFO verilog_src/questa_uvm_pkg-1.2/src/questa_uvm_pkg.sv(216) @ 0: reporter [Questa UVM]  questa_uvm::init(+struct)
# UVM_INFO @ 0: reporter [RNTST] Running test simple_test...
# multiplier: input A =  731014105, input B =  175121917, output Y =   128016591421639285
# multiplier: input A = 00101011100100100110001111011001, input B = 00001010011100000010010111111101, output Y = 0000000111000110110011100110100101100001000010110000101001110101
# refmod: input A =  731014105, input B =  175121917, output Y =   128016591421639285
# refmod: input A = 00101011100100100110001111011001, input B = 00001010011100000010010111111101, output Y = 0000000111000110110011100110100101100001000010110000101001110101
# UVM_INFO @ 45: uvm_test_top.env_h.comp [Comparator Match] 
# multiplier: input A =   80379531, input B = 2702342644, output Y =   217213034326019964
# multiplier: input A = 00000100110010100111111010001011, input B = 10100001000100100111100111110100, output Y = 0000001100000011101100100001101010010111100101100100111101111100
# refmod: input A =   80379531, input B = 2702342644, output Y =   217213034326019964
# refmod: input A = 00000100110010100111111010001011, input B = 10100001000100100111100111110100, output Y = 0000001100000011101100100001101010010111100101100100111101111100
# UVM_INFO @ 75: uvm_test_top.env_h.comp [Comparator Match] 
# multiplier: input A =  260878708, input B = 3812952346, output Y =   994718081690048968
# multiplier: input A = 00001111100011001011000101110100, input B = 11100011010001010000100100011010, output Y = 0000110111001101111100101101001100110110110010110001100111001000
# refmod: input A =  260878708, input B = 3812952346, output Y =   994718081690048968
# refmod: input A = 00001111100011001011000101110100, input B = 11100011010001010000100100011010, output Y = 0000110111001101111100101101001100110110110010110001100111001000
# UVM_INFO @ 105: uvm_test_top.env_h.comp [Comparator Match] 
# multiplier: input A = 4264621708, input B = 4099804783, output Y = 17484116476144029364
# multiplier: input A = 11111110001100001111011010001100, input B = 11110100010111100000111001101111, output Y = 1111001010100100000011110100110011011100000111101000111010110100
# refmod: input A = 4264621708, input B = 4099804783, output Y = 17484116476144029364
# refmod: input A = 11111110001100001111011010001100, input B = 11110100010111100000111001101111, output Y = 1111001010100100000011110100110011011100000111101000111010110100
# UVM_INFO @ 135: uvm_test_top.env_h.comp [Comparator Match] 
# multiplier: input A = 2682128719, input B = 3715728877, output Y =  9966063133019318563
# multiplier: input A = 10011111110111100000100101001111, input B = 11011101011110011000010111101101, output Y = 1000101001001110100100011001110111110100101110111010100100100011
# refmod: input A = 2682128719, input B = 3715728877, output Y =  9966063133019318563
# refmod: input A = 10011111110111100000100101001111, input B = 11011101011110011000010111101101, output Y = 1000101001001110100100011001110111110100101110111010100100100011
# UVM_INFO @ 165: uvm_test_top.env_h.comp [Comparator Match] 
# multiplier: input A =  140412694, input B = 1111608308, output Y =   156083917199061752
# multiplier: input A = 00001000010111101000011100010110, input B = 01000010010000011100101111110100, output Y = 0000001000101010100001010111111011100111110011010011001011111000
# refmod: input A =  140412694, input B = 1111608308, output Y =   156083917199061752
# refmod: input A = 00001000010111101000011100010110, input B = 01000010010000011100101111110100, output Y = 0000001000101010100001010111111011100111110011010011001011111000
# UVM_INFO @ 195: uvm_test_top.env_h.comp [Comparator Match] 
# multiplier: input A = 3761234779, input B = 3947285453, output Y = 14846667328464369887
# multiplier: input A = 11100000001011111110001101011011, input B = 11101011010001101100101111001101, output Y = 1100111000001001111101010100011000110011100001000011100011011111
# refmod: input A = 3761234779, input B = 3947285453, output Y = 14846667328464369887
# refmod: input A = 11100000001011111110001101011011, input B = 11101011010001101100101111001101, output Y = 1100111000001001111101010100011000110011100001000011100011011111
# UVM_INFO @ 225: uvm_test_top.env_h.comp [Comparator Match] 
# multiplier: input A = 2531376513, input B = 3371244592, output Y =  8533889379767067696
# multiplier: input A = 10010110111000011011110110000001, input B = 11001000111100010001110000110000, output Y = 0111011001101110011101110010110100101001011111101010010000110000
# refmod: input A = 2531376513, input B = 3371244592, output Y =  8533889379767067696
# refmod: input A = 10010110111000011011110110000001, input B = 11001000111100010001110000110000, output Y = 0111011001101110011101110010110100101001011111101010010000110000
# UVM_INFO @ 255: uvm_test_top.env_h.comp [Comparator Match] 
# multiplier: input A = 3872680796, input B = 3462746173, output Y = 13410110605599593708
# multiplier: input A = 11100110110101000110101101011100, input B = 11001110011001010101000000111101, output Y = 1011101000011010010010001000101111000101011101100101010011101100
# refmod: input A = 3872680796, input B = 3462746173, output Y = 13410110605599593708
# refmod: input A = 11100110110101000110101101011100, input B = 11001110011001010101000000111101, output Y = 1011101000011010010010001000101111000101011101100101010011101100
# UVM_INFO @ 285: uvm_test_top.env_h.comp [Comparator Match] 
# multiplier: input A = 2373230244, input B = 2938263881, output Y =  6973176707242016964
# multiplier: input A = 10001101011101001001111010100100, input B = 10101111001000100101100101001001, output Y = 0110000011000101101100110100010100001111001100000100000011000100
# refmod: input A = 2373230244, input B = 2938263881, output Y =  6973176707242016964
# refmod: input A = 10001101011101001001111010100100, input B = 10101111001000100101100101001001, output Y = 0110000011000101101100110100010100001111001100000100000011000100
# UVM_INFO @ 315: uvm_test_top.env_h.comp [Comparator Match] 
# multiplier: input A = 1541776121, input B = 1428688626, output Y =  2202718007911099746
# multiplier: input A = 01011011111001011010001011111001, input B = 01010101001010000000111011110010, output Y = 0001111010010001101000000101101110010001111001011010110101100010
# refmod: input A = 1541776121, input B = 1428688626, output Y =  2202718007911099746
# refmod: input A = 01011011111001011010001011111001, input B = 01010101001010000000111011110010, output Y = 0001111010010001101000000101101110010001111001011010110101100010
# UVM_INFO @ 345: uvm_test_top.env_h.comp [Comparator Match] 
# multiplier: input A = 3393944429, input B = 3716857736, output Y = 12614808606482752744
# multiplier: input A = 11001010010010110111101101101101, input B = 11011101100010101011111110001000, output Y = 1010111100010000110011011001011101101010111100011110010011101000
# refmod: input A = 3393944429, input B = 3716857736, output Y = 12614808606482752744
# refmod: input A = 11001010010010110111101101101101, input B = 11011101100010101011111110001000, output Y = 1010111100010000110011011001011101101010111100011110010011101000
# UVM_INFO @ 375: uvm_test_top.env_h.comp [Comparator Match] 
# multiplier: input A = 1712994403, input B =  601358051, output Y =  1030122975561988553
# multiplier: input A = 01100110000110100011100001100011, input B = 00100011110101111111111011100011, output Y = 0000111001001011101110110110001101110001010101110011100111001001
# refmod: input A = 1712994403, input B =  601358051, output Y =  1030122975561988553
# refmod: input A = 01100110000110100011100001100011, input B = 00100011110101111111111011100011, output Y = 0000111001001011101110110110001101110001010101110011100111001001
# UVM_INFO @ 405: uvm_test_top.env_h.comp [Comparator Match] 
# multiplier: input A = 3547324387, input B =  350842963, output Y =  1244553798657238681
# multiplier: input A = 11010011011011111101111111100011, input B = 00010100111010010111000001010011, output Y = 0001000101000101100010110001011000000000110100111110011010011001
# refmod: input A = 3547324387, input B =  350842963, output Y =  1244553798657238681
# refmod: input A = 11010011011011111101111111100011, input B = 00010100111010010111000001010011, output Y = 0001000101000101100010110001011000000000110100111110011010011001
# UVM_INFO @ 435: uvm_test_top.env_h.comp [Comparator Match] 
# multiplier: input A =   91952929, input B = 1965175865, output Y =   180703676786858585
# multiplier: input A = 00000101011110110001011100100001, input B = 01110101001000100011010000111001, output Y = 0000001010000001111111010000100101100000011111001101101001011001
# refmod: input A =   91952929, input B = 1965175865, output Y =   180703676786858585
# refmod: input A = 00000101011110110001011100100001, input B = 01110101001000100011010000111001, output Y = 0000001010000001111111010000100101100000011111001101101001011001
# UVM_INFO @ 465: uvm_test_top.env_h.comp [Comparator Match] 
# multiplier: input A = 3072927006, input B = 2608252870, output Y =  8014970682700007220
# multiplier: input A = 10110111001010010010010100011110, input B = 10011011011101101100011111000110, output Y = 0110111100111010111001010101111011101011100000010000011100110100
# refmod: input A = 3072927006, input B = 2608252870, output Y =  8014970682700007220
# refmod: input A = 10110111001010010010010100011110, input B = 10011011011101101100011111000110, output Y = 0110111100111010111001010101111011101011100000010000011100110100
# UVM_INFO @ 495: uvm_test_top.env_h.comp [Comparator Match] 
# multiplier: input A =  876184097, input B =  614306907, output Y =   538245942590657979
# multiplier: input A = 00110100001110011000001000100001, input B = 00100100100111011001010001011011, output Y = 0000011101111000001110111101010101000001111010010101010110111011
# refmod: input A =  876184097, input B =  614306907, output Y =   538245942590657979
# refmod: input A = 00110100001110011000001000100001, input B = 00100100100111011001010001011011, output Y = 0000011101111000001110111101010101000001111010010101010110111011
# UVM_INFO @ 525: uvm_test_top.env_h.comp [Comparator Match] 
# multiplier: input A = 1568767450, input B = 1075088082, output Y =  1686563188924530900
# multiplier: input A = 01011101100000010111110111011010, input B = 01000000000101001000101011010010, output Y = 0001011101100111111000000100100011010111000110001100000011010100
# refmod: input A = 1568767450, input B = 1075088082, output Y =  1686563188924530900
# refmod: input A = 01011101100000010111110111011010, input B = 01000000000101001000101011010010, output Y = 0001011101100111111000000100100011010111000110001100000011010100
# UVM_INFO @ 555: uvm_test_top.env_h.comp [Comparator Match] 
# multiplier: input A = 1678953407, input B =  444558830, output Y =   746393562240433810
# multiplier: input A = 01100100000100101100101110111111, input B = 00011010011111110110110111101110, output Y = 0000101001011011101110001111110110000011111110101011111010010010
# refmod: input A = 1678953407, input B =  444558830, output Y =   746393562240433810
# refmod: input A = 01100100000100101100101110111111, input B = 00011010011111110110110111101110, output Y = 0000101001011011101110001111110110000011111110101011111010010010
# UVM_INFO @ 585: uvm_test_top.env_h.comp [Comparator Match] 
# multiplier: input A = 1221817855, input B = 4159049667, output Y =  5081601142972404285
# multiplier: input A = 01001000110100110111010111111111, input B = 11110111111001100000111111000011, output Y = 0100011010000101011110010101000011101001000101101101001000111101
# refmod: input A = 1221817855, input B = 4159049667, output Y =  5081601142972404285
# refmod: input A = 01001000110100110111010111111111, input B = 11110111111001100000111111000011, output Y = 0100011010000101011110010101000011101001000101101101001000111101
# UVM_INFO @ 615: uvm_test_top.env_h.comp [Comparator Match] 
# multiplier: input A = 2630731409, input B =   42791131, output Y =   112571972348333579
# multiplier: input A = 10011100110011011100011010010001, input B = 00000010100011001111000011011011, output Y = 0000000110001111111011111001110011000111011111001100111000001011
# refmod: input A = 2630731409, input B =   42791131, output Y =   112571972348333579
# refmod: input A = 10011100110011011100011010010001, input B = 00000010100011001111000011011011, output Y = 0000000110001111111011111001110011000111011111001100111000001011
# UVM_INFO @ 645: uvm_test_top.env_h.comp [Comparator Match] 
# multiplier: input A = 2606837867, input B = 3476886790, output Y =  9063680143444076930
# multiplier: input A = 10011011011000010011000001101011, input B = 11001111001111010001010100000110, output Y = 0111110111001000101010010001000110101011101111101110100110000010
# refmod: input A = 2606837867, input B = 3476886790, output Y =  9063680143444076930
# refmod: input A = 10011011011000010011000001101011, input B = 11001111001111010001010100000110, output Y = 0111110111001000101010010001000110101011101111101110100110000010
# UVM_INFO @ 675: uvm_test_top.env_h.comp [Comparator Match] 
# multiplier: input A = 3413573445, input B = 2073383015, output Y =  7077645201318036675
# multiplier: input A = 11001011011101101111111101000101, input B = 01111011100101010101000001100111, output Y = 0110001000111000110110001100111111000110110011110100010011000011
# refmod: input A = 3413573445, input B = 2073383015, output Y =  7077645201318036675
# refmod: input A = 11001011011101101111111101000101, input B = 01111011100101010101000001100111, output Y = 0110001000111000110110001100111111000110110011110100010011000011
# UVM_INFO @ 705: uvm_test_top.env_h.comp [Comparator Match] 
# multiplier: input A = 2799892819, input B = 3816473543, output Y = 10685716866949187717
# multiplier: input A = 10100110111000101111100101010011, input B = 11100011011110101100001111000111, output Y = 1001010001001011010010101110000000001000111010000000100010000101
# refmod: input A = 2799892819, input B = 3816473543, output Y = 10685716866949187717
# refmod: input A = 10100110111000101111100101010011, input B = 11100011011110101100001111000111, output Y = 1001010001001011010010101110000000001000111010000000100010000101
# UVM_INFO @ 735: uvm_test_top.env_h.comp [Comparator Match] 
# multiplier: input A = 3038299759, input B = 3893807004, output Y = 11830552881845712036
# multiplier: input A = 10110101000110001100011001101111, input B = 11101000000101101100011110011100, output Y = 1010010000101110100100010010101001000010111000110011010010100100
# refmod: input A = 3038299759, input B = 3893807004, output Y = 11830552881845712036
# refmod: input A = 10110101000110001100011001101111, input B = 11101000000101101100011110011100, output Y = 1010010000101110100100010010101001000010111000110011010010100100
# UVM_INFO @ 765: uvm_test_top.env_h.comp [Comparator Match] 
# multiplier: input A = 1778436677, input B = 2353557030, output Y =  4185652143563189310
# multiplier: input A = 01101010000000001100101001000101, input B = 10001100010010000110111000100110, output Y = 0011101000010110011011000111001010110010011011111010110000111110
# refmod: input A = 1778436677, input B = 2353557030, output Y =  4185652143563189310
# refmod: input A = 01101010000000001100101001000101, input B = 10001100010010000110111000100110, output Y = 0011101000010110011011000111001010110010011011111010110000111110
# UVM_INFO @ 795: uvm_test_top.env_h.comp [Comparator Match] 
# multiplier: input A = 3087568070, input B =  357238882, output Y =  1102999365425697740
# multiplier: input A = 10111000000010001000110011000110, input B = 00010101010010110000100001100010, output Y = 0000111101001110101001000001010000110011101011100001001111001100
# refmod: input A = 3087568070, input B =  357238882, output Y =  1102999365425697740
# refmod: input A = 10111000000010001000110011000110, input B = 00010101010010110000100001100010, output Y = 0000111101001110101001000001010000110011101011100001001111001100
# UVM_INFO @ 825: uvm_test_top.env_h.comp [Comparator Match] 
# multiplier: input A = 3913605622, input B = 1385076643, output Y =  5420643736945686946
# multiplier: input A = 11101001010001001110000111110110, input B = 01010010100011101001011110100011, output Y = 0100101100111001111111101100001001001010100101111111100110100010
# refmod: input A = 3913605622, input B = 1385076643, output Y =  5420643736945686946
# refmod: input A = 11101001010001001110000111110110, input B = 01010010100011101001011110100011, output Y = 0100101100111001111111101100001001001010100101111111100110100010
# UVM_INFO @ 855: uvm_test_top.env_h.comp [Comparator Match] 
# multiplier: input A = 2067343682, input B =  977174398, output Y =  2020155317917453436
# multiplier: input A = 01111011001110010010100101000010, input B = 00111010001111100111111101111110, output Y = 0001110000001001000010001000111011110011100101100000110001111100
# refmod: input A = 2067343682, input B =  977174398, output Y =  2020155317917453436
# refmod: input A = 01111011001110010010100101000010, input B = 00111010001111100111111101111110, output Y = 0001110000001001000010001000111011110011100101100000110001111100
# UVM_INFO @ 885: uvm_test_top.env_h.comp [Comparator Match] 
# multiplier: input A =  378808866, input B = 1032434645, output Y =   391095397091562570
# multiplier: input A = 00010110100101000010101000100010, input B = 00111101100010011011001111010101, output Y = 0000010101101101011100110011000100001000111011101101010001001010
# refmod: input A =  378808866, input B = 1032434645, output Y =   391095397091562570
# refmod: input A = 00010110100101000010101000100010, input B = 00111101100010011011001111010101, output Y = 0000010101101101011100110011000100001000111011101101010001001010
# UVM_INFO @ 915: uvm_test_top.env_h.comp [Comparator Match] 
# multiplier: input A = 4125287197, input B = 2255869364, output Y =  9306109005413732708
# multiplier: input A = 11110101111000101110001100011101, input B = 10000110011101011101010110110100, output Y = 1000000100100101111100001101010110100100101111111101000101100100
# refmod: input A = 4125287197, input B = 2255869364, output Y =  9306109005413732708
# refmod: input A = 11110101111000101110001100011101, input B = 10000110011101011101010110110100, output Y = 1000000100100101111100001101010110100100101111111101000101100100
# UVM_INFO @ 945: uvm_test_top.env_h.comp [Comparator Match] 
# multiplier: input A =  785484068, input B = 3294069295, output Y =  2587438950110492060
# multiplier: input A = 00101110110100011000100100100100, input B = 11000100010101111000001000101111, output Y = 0010001111101000011011100000010000101011010110000111010110011100
# refmod: input A =  785484068, input B = 3294069295, output Y =  2587438950110492060
# refmod: input A = 00101110110100011000100100100100, input B = 11000100010101111000001000101111, output Y = 0010001111101000011011100000010000101011010110000111010110011100
# UVM_INFO @ 975: uvm_test_top.env_h.comp [Comparator Match] 
# multiplier: input A = 3061458211, input B = 2837765930, output Y =  8687701807294551230
# multiplier: input A = 10110110011110100010010100100011, input B = 10101001001001001101111100101010, output Y = 0111100010010000111010101100001110101010010011111001010010111110
# refmod: input A = 3061458211, input B = 2837765930, output Y =  8687701807294551230
# refmod: input A = 10110110011110100010010100100011, input B = 10101001001001001101111100101010, output Y = 0111100010010000111010101100001110101010010011111001010010111110
# UVM_INFO @ 1005: uvm_test_top.env_h.comp [Comparator Match] 
# multiplier: input A = 1544876891, input B = 1738059493, output Y =  2685087945918876263
# multiplier: input A = 01011100000101001111001101011011, input B = 01100111100110001010111011100101, output Y = 0010010101000011010110010100001010110111001011011000101001100111
# refmod: input A = 1544876891, input B = 1738059493, output Y =  2685087945918876263
# refmod: input A = 01011100000101001111001101011011, input B = 01100111100110001010111011100101, output Y = 0010010101000011010110010100001010110111001011011000101001100111
# UVM_INFO @ 1035: uvm_test_top.env_h.comp [Comparator Match] 
# multiplier: input A = 1961337323, input B = 2703619792, output Y =  5302710405251096816
# multiplier: input A = 01110100111001111010000111101011, input B = 10100001001001011111011011010000, output Y = 0100100110010111000000110000010011000011110000100110000011110000
# refmod: input A = 1961337323, input B = 2703619792, output Y =  5302710405251096816
# refmod: input A = 01110100111001111010000111101011, input B = 10100001001001011111011011010000, output Y = 0100100110010111000000110000010011000011110000100110000011110000
# UVM_INFO @ 1065: uvm_test_top.env_h.comp [Comparator Match] 
# multiplier: input A = 1727143128, input B =  724064169, output Y =  1250562453719380632
# multiplier: input A = 01100110111100100001110011011000, input B = 00101011001010000101011110101001, output Y = 0001000101011010111000111110110100000111011000100111001010011000
# refmod: input A = 1727143128, input B =  724064169, output Y =  1250562453719380632
# refmod: input A = 01100110111100100001110011011000, input B = 00101011001010000101011110101001, output Y = 0001000101011010111000111110110100000111011000100111001010011000
# UVM_INFO @ 1095: uvm_test_top.env_h.comp [Comparator Match] 
# multiplier: input A =  246654637, input B = 1595147461, output Y =   393450517954426657
# multiplier: input A = 00001110101100111010011010101101, input B = 01011111000101000000010011000101, output Y = 0000010101110101110100010010100101010111010111011111011100100001
# refmod: input A =  246654637, input B = 1595147461, output Y =   393450517954426657
# refmod: input A = 00001110101100111010011010101101, input B = 01011111000101000000010011000101, output Y = 0000010101110101110100010010100101010111010111011111011100100001
# UVM_INFO @ 1125: uvm_test_top.env_h.comp [Comparator Match] 
# multiplier: input A = 1646293169, input B = 3201576091, output Y =  5270732848647022379
# multiplier: input A = 01100010001000000111000010110001, input B = 10111110110101000010110010011011, output Y = 0100100100100101011001111001100110101101100101101010011100101011
# refmod: input A = 1646293169, input B = 3201576091, output Y =  5270732848647022379
# refmod: input A = 01100010001000000111000010110001, input B = 10111110110101000010110010011011, output Y = 0100100100100101011001111001100110101101100101101010011100101011
# UVM_INFO @ 1155: uvm_test_top.env_h.comp [Comparator Match] 
# multiplier: input A = 3948884356, input B = 1247084803, output Y =  4924593669172041868
# multiplier: input A = 11101011010111110011000110000100, input B = 01001010010101010000000100000011, output Y = 0100010001010111101010111101100110111010001000110001100010001100
# refmod: input A = 3948884356, input B = 1247084803, output Y =  4924593669172041868
# refmod: input A = 11101011010111110011000110000100, input B = 01001010010101010000000100000011, output Y = 0100010001010111101010111101100110111010001000110001100010001100
# UVM_INFO @ 1185: uvm_test_top.env_h.comp [Comparator Match] 
# multiplier: input A = 1637527070, input B =  818587330, output Y =  1340458912034023100
# multiplier: input A = 01100001100110101010111000011110, input B = 00110000110010101010011011000010, output Y = 0001001010011010010001000100011101000111110010110110011010111100
# refmod: input A = 1637527070, input B =  818587330, output Y =  1340458912034023100
# refmod: input A = 01100001100110101010111000011110, input B = 00110000110010101010011011000010, output Y = 0001001010011010010001000100011101000111110010110110011010111100
# UVM_INFO @ 1215: uvm_test_top.env_h.comp [Comparator Match] 
# multiplier: input A =  268764860, input B = 2202569796, output Y =   591973362862168560
# multiplier: input A = 00010000000001010000011010111100, input B = 10000011010010001000110001000100, output Y = 0000100000110111000111001010001100011001111001001001100111110000
# refmod: input A =  268764860, input B = 2202569796, output Y =   591973362862168560
# refmod: input A = 00010000000001010000011010111100, input B = 10000011010010001000110001000100, output Y = 0000100000110111000111001010001100011001111001001001100111110000
# UVM_INFO @ 1245: uvm_test_top.env_h.comp [Comparator Match] 
# multiplier: input A = 1106214409, input B = 4183870257, output Y =  4628257563679933113
# multiplier: input A = 01000001111011110111111000001001, input B = 11111001011000001100101100110001, output Y = 0100000000111010110111111011101110001100001010000100001010111001
# refmod: input A = 1106214409, input B = 4183870257, output Y =  4628257563679933113
# refmod: input A = 01000001111011110111111000001001, input B = 11111001011000001100101100110001, output Y = 0100000000111010110111111011101110001100001010000100001010111001
# UVM_INFO @ 1275: uvm_test_top.env_h.comp [Comparator Match] 
# multiplier: input A = 4273562788, input B = 4156397442, output Y = 17762625440269588296
# multiplier: input A = 11111110101110010110010010100100, input B = 11110111101111011001011110000010, output Y = 1111011010000001100001011011101000111101100101011101011101001000
# refmod: input A = 4273562788, input B = 4156397442, output Y = 17762625440269588296
# refmod: input A = 11111110101110010110010010100100, input B = 11110111101111011001011110000010, output Y = 1111011010000001100001011011101000111101100101011101011101001000
# UVM_INFO @ 1305: uvm_test_top.env_h.comp [Comparator Match] 
# multiplier: input A = 1937459090, input B =  999367748, output Y =  1936234127615429320
# multiplier: input A = 01110011011110110100011110010010, input B = 00111011100100010010010001000100, output Y = 0001101011011110111000101010111000110010100000011000101011001000
# refmod: input A = 1937459090, input B =  999367748, output Y =  1936234127615429320
# refmod: input A = 01110011011110110100011110010010, input B = 00111011100100010010010001000100, output Y = 0001101011011110111000101010111000110010100000011000101011001000
# UVM_INFO @ 1335: uvm_test_top.env_h.comp [Comparator Match] 
# multiplier: input A = 4036642459, input B = 1197094634, output Y =  4832243027045465006
# multiplier: input A = 11110000100110100100011010011011, input B = 01000111010110100011011011101010, output Y = 0100001100001111100100110110111001000111011001110011101110101110
# refmod: input A = 4036642459, input B = 1197094634, output Y =  4832243027045465006
# refmod: input A = 11110000100110100100011010011011, input B = 01000111010110100011011011101010, output Y = 0100001100001111100100110110111001000111011001110011101110101110
# UVM_INFO @ 1365: uvm_test_top.env_h.comp [Comparator Match] 
# multiplier: input A = 3917401539, input B =  203933794, output Y =   798890558469708966
# multiplier: input A = 11101001011111101100110111000011, input B = 00001100001001111100100001100010, output Y = 0000101100010110001110101011101011110000000000000001110010100110
# refmod: input A = 3917401539, input B =  203933794, output Y =   798890558469708966
# refmod: input A = 11101001011111101100110111000011, input B = 00001100001001111100100001100010, output Y = 0000101100010110001110101011101011110000000000000001110010100110
# UVM_INFO @ 1395: uvm_test_top.env_h.comp [Comparator Match] 
# multiplier: input A = 1881716334, input B = 3244053105, output Y =  6104387716041917070
# multiplier: input A = 01110000001010001011011001101110, input B = 11000001010111000101001001110001, output Y = 0101010010110111001001000100100100001001111011111100001010001110
# refmod: input A = 1881716334, input B = 3244053105, output Y =  6104387716041917070
# refmod: input A = 01110000001010001011011001101110, input B = 11000001010111000101001001110001, output Y = 0101010010110111001001000100100100001001111011111100001010001110
# UVM_INFO @ 1425: uvm_test_top.env_h.comp [Comparator Match] 
# multiplier: input A = 1774463054, input B = 1288052871, output Y =  2285602231188128034
# multiplier: input A = 01101001110001000010100001001110, input B = 01001100110001100010000010000111, output Y = 0001111110111000000101110001111010011111110011110000000100100010
# refmod: input A = 1774463054, input B = 1288052871, output Y =  2285602231188128034
# refmod: input A = 01101001110001000010100001001110, input B = 01001100110001100010000010000111, output Y = 0001111110111000000101110001111010011111110011110000000100100010
# UVM_INFO @ 1455: uvm_test_top.env_h.comp [Comparator Match] 
# multiplier: input A = 1436771488, input B = 3619934878, output Y =  5201019221127158464
# multiplier: input A = 01010101101000110110010010100000, input B = 11010111110000111101001010011110, output Y = 0100100000101101101110110110110011101001010000110101101011000000
# refmod: input A = 1436771488, input B = 3619934878, output Y =  5201019221127158464
# refmod: input A = 01010101101000110110010010100000, input B = 11010111110000111101001010011110, output Y = 0100100000101101101110110110110011101001010000110101101011000000
# UVM_INFO @ 1485: uvm_test_top.env_h.comp [Comparator Match] 
# multiplier: input A = 1111989750, input B = 1067334004, output Y =  1186864472274459000
# multiplier: input A = 01000010010001111001110111110110, input B = 00111111100111100011100101110100, output Y = 0001000001111000100101101111001100000010011100110101100101111000
# refmod: input A = 1111989750, input B = 1067334004, output Y =  1186864472274459000
# refmod: input A = 01000010010001111001110111110110, input B = 00111111100111100011100101110100, output Y = 0001000001111000100101101111001100000010011100110101100101111000
# UVM_INFO @ 1515: uvm_test_top.env_h.comp [Comparator Match] 
# multiplier: input A = 3261521793, input B = 4024224161, output Y = 13125094801018640673
# multiplier: input A = 11000010011001101101111110000001, input B = 11101111110111001100100110100001, output Y = 1011011000100101101101000010111010001010000010101101100100100001
# refmod: input A = 3261521793, input B = 4024224161, output Y = 13125094801018640673
# refmod: input A = 11000010011001101101111110000001, input B = 11101111110111001100100110100001, output Y = 1011011000100101101101000010111010001010000010101101100100100001
# UVM_INFO @ 1545: uvm_test_top.env_h.comp [Comparator Match] 
# multiplier: input A = 3185942541, input B = 2563643218, output Y =  8167619988172336938
# multiplier: input A = 10111101111001011010000000001101, input B = 10011000110011100001011101010010, output Y = 0111000101011001001101110001101011110111011001000110111100101010
# refmod: input A = 3185942541, input B = 2563643218, output Y =  8167619988172336938
# refmod: input A = 10111101111001011010000000001101, input B = 10011000110011100001011101010010, output Y = 0111000101011001001101110001101011110111011001000110111100101010
# UVM_INFO @ 1575: uvm_test_top.env_h.comp [Comparator Match] 
# multiplier: input A = 3631628400, input B = 3195793936, output Y = 11605936018525382400
# multiplier: input A = 11011000011101100100000001110000, input B = 10111110011110111111001000010000, output Y = 1010000100010000100100010101000101100110000111011110011100000000
# refmod: input A = 3631628400, input B = 3195793936, output Y = 11605936018525382400
# refmod: input A = 11011000011101100100000001110000, input B = 10111110011110111111001000010000, output Y = 1010000100010000100100010101000101100110000111011110011100000000
# UVM_INFO @ 1605: uvm_test_top.env_h.comp [Comparator Match] 
# multiplier: input A =   48072737, input B = 2635766235, output Y =   126708497008635195
# multiplier: input A = 00000010110111011000100000100001, input B = 10011101000110101001100111011011, output Y = 0000000111000010001010001011010011101010001110010010110100111011
# refmod: input A =   48072737, input B = 2635766235, output Y =   126708497008635195
# refmod: input A = 00000010110111011000100000100001, input B = 10011101000110101001100111011011, output Y = 0000000111000010001010001011010011101010001110010010110100111011
# UVM_INFO @ 1635: uvm_test_top.env_h.comp [Comparator Match] 
# multiplier: input A =   69971449, input B = 2520594892, output Y =   176369676935238508
# multiplier: input A = 00000100001010111010110111111001, input B = 10010110001111010011100111001100, output Y = 0000001001110010100101110100100101100110111000000001001101101100
# refmod: input A =   69971449, input B = 2520594892, output Y =   176369676935238508
# refmod: input A = 00000100001010111010110111111001, input B = 10010110001111010011100111001100, output Y = 0000001001110010100101110100100101100110111000000001001101101100
# UVM_INFO @ 1665: uvm_test_top.env_h.comp [Comparator Match] 
# multiplier: input A = 1953219277, input B = 1325665225, output Y =  2589314872318542325
# multiplier: input A = 01110100011010111100001011001101, input B = 01001111000001000000101111001001, output Y = 0010001111101111000110000010100001011000001011101100000111110101
# refmod: input A = 1953219277, input B = 1325665225, output Y =  2589314872318542325
# refmod: input A = 01110100011010111100001011001101, input B = 01001111000001000000101111001001, output Y = 0010001111101111000110000010100001011000001011101100000111110101
# UVM_INFO @ 1695: uvm_test_top.env_h.comp [Comparator Match] 
